<?xml version="1.0" encoding="utf-8"?>
<!-- Generator: Adobe Illustrator 19.2.1, SVG Export Plug-In . SVG Version: 6.00 Build 0)  -->
<svg version="1.1" id="Layer_2" xmlns="http://www.w3.org/2000/svg" xmlns:xlink="http://www.w3.org/1999/xlink" x="0px" y="0px"
	 width="30px" height="22px" viewBox="0 0 30 22" style="enable-background:new 0 0 30 22;" xml:space="preserve">
<path id="path0_fill" d="M16.2,18.2c3.8,0,7-3.2,7-7.1s-3.1-7.1-7-7.1c-3.8,0-7,3.2-7,7.1C9.3,15.1,12.4,18.2,16.2,18.2z"/>
<path id="path1_fill" d="M16.2,20.1c4.9,0,8.8-4,8.8-9c0-5-4-9-8.8-9c-4.9,0-8.8,4-8.8,9C7.4,16.1,11.4,20.1,16.2,20.1z M16.2,3.5
	c4.1,0,7.5,3.4,7.5,7.6c0,4.2-3.4,7.6-7.5,7.6c-4.1,0-7.5-3.4-7.5-7.6C8.8,6.9,12.1,3.5,16.2,3.5z"/>
<path id="path2_fill" d="M30,21L29.5,0.8c0-0.4-0.3-0.8-0.8-0.8c-0.1,0-0.2,0-0.3,0.1v0c0,0,0,0,0,0c-0.1,0-0.1,0.1-0.2,0.2
	c-0.6,0.5-2.4,2.4-2.5,5c-0.2,4,1.7,5.6,2.3,7.1L27.4,21c0,0.4,0.9,0.8,1.3,0.8C29.1,21.8,30,21.4,30,21z"/>
<path id="path3_fill" d="M1.4,8.7l1.3,0.7C2.8,9.4,3,9.5,3.2,9.5L2.7,21.3C2.7,21.7,3.5,22,4,22c0.4,0,1.3-0.3,1.3-0.7L4.7,9.5
	c0.2-0.1,0.4-0.1,0.5-0.2l1-0.6c0.7-0.4,1.3-1.4,1.3-2.3V1.1c0-0.4-0.3-0.8-0.8-0.8c-0.4,0-0.8,0.4-0.8,0.8v4.8H5.5V1.1
	c0-0.4-0.3-0.8-0.8-0.8C4.3,0.3,4,0.6,4,1.1v4.8H3.5V1.1c0-0.4-0.3-0.8-0.8-0.8C2.3,0.3,2,0.6,2,1.1v4.8H1.5V1.2
	c0-0.4-0.3-0.8-0.8-0.8C0.3,0.5,0,0.8,0,1.2v5.2C0,7.3,0.6,8.3,1.4,8.7z"/>
</svg>
